

[
	{
		"_id": "56fa992326c647376404c927",
		"name": "Northmen",
		"__v": 0
	},
	{
		"_id": "56fa992426c647376404c928",
		"name": "Ironborn",
		"__v": 0
	},
	{
		"_id": "56fa992426c647376404c929",
		"name": "Dornishmen",
		"__v": 0
	},
	{
		"_id": "56fa992426c647376404c92a",
		"name": "Orphans of the Greenblood",
		"__v": 0
	},
	{
		"_id": "56fa992426c647376404c92b",
		"name": "Vale mountain clans",
		"__v": 0
	},
	{
		"_id": "56fa992426c647376404c92c",
		"name": "Northern mountain clans",
		"__v": 0
	},
	{
		"_id": "56fa992426c647376404c92d",
		"name": "Crannogmen",
		"__v": 0
	},
	{
		"_id": "56fa992426c647376404c92e",
		"name": "Skagosi",
		"__v": 0
	},
	{
		"_id": "56fa992426c647376404c92f",
		"name": "Children of the forest",
		"__v": 0
	},
	{
		"_id": "56fa992426c647376404c930",
		"name": "First Men",
		"__v": 0
	},
	{
		"_id": "56fa992426c647376404c931",
		"name": "Andal",
		"__v": 0
	},
	{
		"_id": "56fa992426c647376404c932",
		"name": "Rhoynar",
		"__v": 0
	},
	{
		"_id": "56fa992426c647376404c933",
		"name": "Ghiscari",
		"__v": 0
	},
	{
		"_id": "56fa992426c647376404c934",
		"name": "Valyrian Freehold",
		"__v": 0
	},
	{
		"_id": "56fa992426c647376404c935",
		"name": "Free folk",
		"__v": 0
	},
	{
		"_id": "56fa992426c647376404c936",
		"name": "Thenns",
		"__v": 0
	},
	{
		"_id": "56fa992426c647376404c937",
		"name": "Giants",
		"__v": 0
	},
	{
		"_id": "56fa992426c647376404c938",
		"name": "Others",
		"__v": 0
	},
	{
		"_id": "56fa992426c647376404c939",
		"name": "Essos",
		"__v": 0
	},
	{
		"_id": "56fa992426c647376404c93a",
		"name": "Free Cities",
		"__v": 0
	},
	{
		"_id": "56fa992426c647376404c93b",
		"name": "Dothraki",
		"__v": 0
	},
	{
		"_id": "56fa992426c647376404c93c",
		"name": "Lhazareen",
		"__v": 0
	},
	{
		"_id": "56fa992426c647376404c93d",
		"name": "Qarth",
		"__v": 0
	},
	{
		"_id": "56fa992426c647376404c93e",
		"name": "Yi Ti",
		"__v": 0
	}
]